[comment encoding = UTF-8 /]
[module service('http://org.eclipse.emfgmf.editautomatamodelingtool/model/editautomaton.ecore')/]

[template public fileprova(a: String)]
[a.fileContained()  /]
[/template]


[query public getApiConstructors(arg0 : String) : Sequence(OclAny)
	= invoke('org.eclipse.acceleo.policyenforcergenerator.services.Service', 'getApiConstructors(java.lang.String)', Sequence{arg0})
/]

[query public getPublicAndInheritedMethods(arg0 : String) : Sequence(OclAny)
	= invoke('org.eclipse.acceleo.policyenforcergenerator.services.Service', 'getPublicAndInheritedMethods(java.lang.String)', Sequence{arg0})
/]

[query public getVarList(arg0 : String, arg1 : String) : String
	= invoke('org.eclipse.acceleo.policyenforcergenerator.services.Service', 'getVarList(java.lang.String, java.lang.String)', Sequence{arg0, arg1})
/]


[query public fileContained(arg0 : String) : String
	= invoke('org.eclipse.acceleo.policyenforcergenerator.services.Service', 'fileContained(java.lang.String)', Sequence{arg0})
/]

[query public isAutomataAction(arg0 : String) : Boolean
	= invoke('org.eclipse.acceleo.policyenforcergenerator.services.Service', 'isAutomataAction(java.lang.String)', Sequence{arg0})
/]

[query public isAutomatonConstructor(arg0 : String) : Boolean
	= invoke('org.eclipse.acceleo.policyenforcergenerator.services.Service', 'isAutomatonConstructor(java.lang.String)', Sequence{arg0})
/]

[query public getApi(anOclAny: OclAny) : String
	= invoke('org.eclipse.acceleo.policyenforcergenerator.services.Service', 'getApi()', Sequence{})
/]

[query public readTransitions(anOclAny: OclAny) : Sequence(OclAny)
	= invoke('org.eclipse.acceleo.policyenforcergenerator.services.Service', 'readTransition()', Sequence{})
/]

[query public readTransitions2(anOclAny: OclAny) : Sequence(OclAny)
	= invoke('org.eclipse.acceleo.policyenforcergenerator.services.Service', 'readTransition2()', Sequence{})
/]

[query public extractParameters(arg0: String) : String
	= invoke('org.eclipse.acceleo.policyenforcergenerator.services.Service', 'extractParameters(java.lang.String)', Sequence{arg0})
/]

[query public extractClass(arg0 : String) : String
	= invoke('org.eclipse.acceleo.policyenforcergenerator.services.Service', 'extractClass(java.lang.String)', Sequence{arg0})
/]

[query public extractMethodName(arg0 : String) : String
	= invoke('org.eclipse.acceleo.policyenforcergenerator.services.Service', 'extractMethodName(java.lang.String)', Sequence{arg0})
/]

[query public setParameters(arg0 : String) : String
	= invoke('org.eclipse.acceleo.policyenforcergenerator.services.Service', 'setParameters(java.lang.String)', Sequence{arg0})
/]

[query public doubleMethodCheck(arg0 : String) : String
	= invoke('org.eclipse.acceleo.policyenforcergenerator.services.Service', 'doubleMethodCheck(java.lang.String)', Sequence{arg0})
/]

[query public getLifeCycleObject(a: OclAny) : String
	= invoke('org.eclipse.acceleo.policyenforcergenerator.services.Service', 'getLifeCycleObject()', Sequence{})
/]

[query public getHandledObject(a: OclAny) : String
	= invoke('org.eclipse.acceleo.policyenforcergenerator.services.Service', 'getHandledObject()', Sequence{})
/]
